…
```
## # A tibble: 91 × 12
##    Code  Year  Country_N…¹ Count…² GDP_H…³ POP_ACT INPRIV EPARB…⁴ DEBTEXT  DEPUB
##    <fct> <chr> <chr>       <chr>     <dbl>   <dbl>  <dbl>   <dbl>   <dbl>  <dbl>
##  1 1     2005  Bénin       BEN        823. 3184049 7.94e8  8.01e8  1.56e9 5.91e8
##  2 1     2006  Bénin       BEN        856. 3282301 9.06e8  8.77e8  6.60e8 6.80e8
##  3 1     2007  Bénin       BEN        966. 3383679 1.34e9  1.15e9  9.03e8 7.82e8
##  4 1     2008  Bénin       BEN       1125. 3488763 1.34e9  1.24e9  9.98e8 1.00e9
##  5 1     2009  Bénin       BEN       1089. 3598159 1.45e9  1.12e9  1.33e9 1.10e9
##  6 1     2011  Bénin       BEN       1130. 3825604 1.76e9  1.30e9  1.86e9 1.18e9
##  7 1     2012  Bénin       BEN       1145. 3942161 1.70e9  1.51e9  1.67e9 1.24e9
##  8 1     2013  Bénin       BEN       1251. 4063769 2.36e9  2.04e9  2.00e9 1.38e9
##  9 1     2014  Bénin       BEN       1291. 4189856 2.56e9  2.47e9  2.04e9 1.35e9
## 10 1     2015  Bénin       BEN       1077. 4320200 2.36e9  1.58e9  2.17e9 1.30e9
## # … with 81 more rows, 2 more variables: OUVCM <dbl>, Inflation <dbl>, and
## #   abbreviated variable names ¹​Country_Name, ²​Country_Code, ³​GDP_Habitat,
## #   ⁴​EPARBRUT
```
…
Data_BRICS <- Data_BRICS[Data_BRICS$Country_Code != "CIV",]
Data_BRICS <- Data_BRICS[Data_BRICS$Year %in% c(2005,2006,2007,2008,2009,2011,2012,2013,2014,2015,2016,2017,2018),]
Data_BRICS <- Data_BRICS %>% mutate_at(c('GDP_Habitat', 'POP_ACT', 'INPRIV', 'EPARBRUT', 'DEBTEXT', 'DEPUB', 'OUVCM', 'Inflation'), as.numeric)
Data_BRICS$Code = as.factor(ifelse(Data_BRICS$Country_Name == "Afrique du Sud",1,
                                   ifelse(Data_BRICS$Country_Name == "Brésil", 2,
                                          ifelse(Data_BRICS$Country_Name == "Chine", 3,
                                                 ifelse(Data_BRICS$Country_Name == "Fédération de Russie", 4,5
                                                       )))))
Data_BRICS %>% relocate(c("Code","Year"), .before = Country_Name) -> Data_BRICS
Data_BRICS <- as_tibble(Data_BRICS)
Data_BRICS
```

```
## # A tibble: 65 × 12
##    Code  Year  Country…¹ Count…² GDP_H…³ POP_ACT  INPRIV EPARB…⁴ DEBTEXT   DEPUB
##    <fct> <chr> <chr>     <chr>     <dbl>   <dbl>   <dbl>   <dbl>   <dbl>   <dbl>
##  1 2     2005  Brésil    BRA       4790.  8.89e7 1.53e11 1.62e11 1.88e11 1.68e11
##  2 2     2006  Brésil    BRA       5886.  9.00e7 1.97e11 2.05e11 1.94e11 2.11e11
##  3 2     2007  Brésil    BRA       7348.  9.11e7 2.77e11 2.71e11 2.38e11 2.65e11
##  4 2     2008  Brésil    BRA       8831.  9.24e7 3.67e11 3.26e11 2.63e11 3.19e11
##  5 2     2009  Brésil    BRA       8598.  9.42e7 3.13e11 2.75e11 2.82e11 3.28e11
##  6 2     2011  Brésil    BRA      13245.  9.38e7 5.71e11 4.84e11 4.04e11 4.88e11
##  7 2     2012  Brésil    BRA      12370.  9.49e7 5.28e11 4.33e11 4.41e11 4.57e11
##  8 2     2013  Brésil    BRA      12300.  9.61e7 5.36e11 4.46e11 4.84e11 4.67e11
##  9 2     2014  Brésil    BRA      12113.  9.72e7 5.05e11 3.93e11 5.57e11 4.70e11
## 10 2     2015  Brésil    BRA       8814.  9.87e7 3.14e11 2.58e11 5.43e11 3.56e11
## # … with 55 more rows, 2 more variables: OUVCM <dbl>, Inflation <dbl>, and
## #   abbreviated variable names ¹​Country_Name, ²​Country_Code, ³​GDP_Habitat,
## #   ⁴​EPARBRUT
```
…
